{
  "swagger" : "2.0",
  "info" : {
    "version" : "1.0.0",
    "title" : "Identity Module",
    "contact" : { }
  },
  "host" : "rg01we-dp-dev-app5.westeurope.cloudapp.azure.com",
  "basePath" : "/v1",
  "tags" : [ {
    "name" : "identity"
  } ],
  "schemes" : [ "https" ],
  "paths" : {
    "/identity/customer_property_relationship_types" : {
      "get" : {
        "tags" : [ "identity" ],
        "summary" : "",
        "description" : "Returns possible types of customer property relationship.",
        "operationId" : "getCustomerPropertyRelationType",
        "consumes" : [ "application/json" ],
        "produces" : [ "application/json" ],
        "responses" : {
          "200" : {
            "description" : "The collection of possible types of customer property relationship."
          }
        },
        "security" : [ {
          "api_key" : [ ]
        } ]
      }
    }
  },
  "securityDefinitions" : {
    "api_key" : {
      "type" : "apiKey",
      "name" : "Authorization",
      "in" : "header"
    }
  }
}