{
  "swagger" : "2.0",
  "info" : {
    "version" : "1.0.0",
    "title" : "User",
    "contact" : { }
  },
  "host" : "rg01we-dp-dev-app5.westeurope.cloudapp.azure.com",
  "basePath" : "/v1",
  "tags" : [ {
    "name" : "users"
  } ],
  "schemes" : [ "https" ],
  "paths" : {
    "/identity/users" : {
      "get" : {
        "tags" : [ "users" ],
        "summary" : "",
        "description" : "Returns a collection of users.",
        "operationId" : "getUsers",
        "consumes" : [ "application/json" ],
        "produces" : [ "application/json" ],
        "parameters" : [ {
          "name" : "filter",
          "in" : "query",
          "description" : "Ability to filter collection to certain values, it uses FIQL syntax. Example: ?filter=name==snapshot",
          "required" : false,
          "type" : "string"
        }, {
          "name" : "sort",
          "in" : "query",
          "description" : "Ascending sort parameter where the value is the object attribute.",
          "required" : false,
          "type" : "string"
        }, {
          "name" : "sort_desc",
          "in" : "query",
          "description" : "Descending sort parameter where the value is the object attribute.",
          "required" : false,
          "type" : "string"
        }, {
          "name" : "limit",
          "in" : "query",
          "description" : "Specifies how many results is returned in response. The default value is 50, max allowed is 200. The response can return all results within single call (there is no cursor paging available).",
          "required" : false,
          "type" : "integer",
          "format" : "int32"
        }, {
          "name" : "cursor",
          "in" : "query",
          "description" : "Starting paging cursor.",
          "required" : false,
          "type" : "integer",
          "format" : "int32"
        } ],
        "responses" : {
          "200" : {
            "description" : "Collection of users.",
            "schema" : {
              "type" : "array",
              "items" : {
                "$ref" : "#/definitions/User"
              }
            }
          }
        },
        "security" : [ {
          "api_key" : [ ]
        } ]
      },
      "post" : {
        "tags" : [ "users" ],
        "summary" : "",
        "description" : "Creates a new user.",
        "operationId" : "addUser",
        "consumes" : [ "application/json" ],
        "produces" : [ "application/json" ],
        "parameters" : [ {
          "in" : "body",
          "name" : "body",
          "description" : "The new user.",
          "required" : true,
          "schema" : {
            "$ref" : "#/definitions/UserCreate"
          }
        } ],
        "responses" : {
          "201" : {
            "description" : "The created user.",
            "schema" : {
              "$ref" : "#/definitions/User"
            }
          }
        },
        "security" : [ {
          "api_key" : [ ]
        } ]
      }
    },
    "/identity/users/{user_id}" : {
      "get" : {
        "tags" : [ "users" ],
        "summary" : "",
        "description" : "Returns a user with the specified UUID.",
        "operationId" : "getUser",
        "consumes" : [ "application/json" ],
        "produces" : [ "application/json" ],
        "parameters" : [ {
          "name" : "user_id",
          "in" : "path",
          "description" : "ID of the user.",
          "required" : true,
          "type" : "string"
        } ],
        "responses" : {
          "200" : {
            "description" : "The retrieved user.",
            "schema" : {
              "$ref" : "#/definitions/User"
            }
          }
        },
        "security" : [ {
          "api_key" : [ ]
        } ]
      },
      "post" : {
        "tags" : [ "users" ],
        "summary" : "",
        "description" : "Updates a user specified.",
        "operationId" : "updateUser",
        "consumes" : [ "application/json" ],
        "produces" : [ "application/json" ],
        "parameters" : [ {
          "name" : "user_id",
          "in" : "path",
          "description" : "ID of the user.",
          "required" : true,
          "type" : "string"
        }, {
          "name" : "If-Match",
          "in" : "header",
          "description" : "The value taken from Etag HTTP header (specifies the version of the object). It is used by server to validate that client has actual version.",
          "required" : true,
          "type" : "string",
          "default" : ""
        }, {
          "in" : "body",
          "name" : "body",
          "description" : "The user update.",
          "required" : true,
          "schema" : {
            "$ref" : "#/definitions/UserUpdate"
          }
        } ],
        "responses" : {
          "204" : {
            "description" : "The user has been updated."
          }
        },
        "security" : [ {
          "api_key" : [ ]
        } ]
      },
      "delete" : {
        "tags" : [ "users" ],
        "summary" : "",
        "description" : "Deletes a user.",
        "operationId" : "deleteUser",
        "consumes" : [ "application/json" ],
        "produces" : [ "application/json" ],
        "parameters" : [ {
          "name" : "user_id",
          "in" : "path",
          "description" : "ID of the user.",
          "required" : true,
          "type" : "string"
        }, {
          "name" : "If-Match",
          "in" : "header",
          "description" : "The value taken from Etag HTTP header (specifies the version of the object). It is used by server to validate that client has actual version.",
          "required" : true,
          "type" : "string",
          "default" : ""
        } ],
        "responses" : {
          "204" : {
            "description" : "The user has been deleted."
          }
        },
        "security" : [ {
          "api_key" : [ ]
        } ]
      }
    },
    "/identity/users/{user_id}/customers" : {
      "get" : {
        "tags" : [ "users" ],
        "summary" : "",
        "description" : "Returns all relationships between the specified user and customers.",
        "operationId" : "getUserCustomerRelationships",
        "consumes" : [ "application/json" ],
        "produces" : [ "application/json" ],
        "parameters" : [ {
          "name" : "user_id",
          "in" : "path",
          "description" : "ID of the user.",
          "required" : true,
          "type" : "string"
        }, {
          "name" : "filter",
          "in" : "query",
          "description" : "Ability to filter collection to certain values, it uses FIQL syntax. Example: ?filter=name==snapshot",
          "required" : false,
          "type" : "string"
        }, {
          "name" : "sort",
          "in" : "query",
          "description" : "Ascending sort parameter where the value is the object attribute.",
          "required" : false,
          "type" : "string"
        }, {
          "name" : "sort_desc",
          "in" : "query",
          "description" : "Descending sort parameter where the value is the object attribute.",
          "required" : false,
          "type" : "string"
        }, {
          "name" : "limit",
          "in" : "query",
          "description" : "Specifies how many results is returned in response. The default value is 50, max allowed is 200. The response can return all results within single call (there is no cursor paging available).",
          "required" : false,
          "type" : "integer",
          "format" : "int32"
        }, {
          "name" : "cursor",
          "in" : "query",
          "description" : "Starting paging cursor.",
          "required" : false,
          "type" : "integer",
          "format" : "int32"
        } ],
        "responses" : {
          "200" : {
            "description" : "Collection of relationships between the user and customers.",
            "schema" : {
              "type" : "array",
              "items" : {
                "$ref" : "#/definitions/UserCustomerRelationship"
              }
            }
          }
        },
        "security" : [ {
          "api_key" : [ ]
        } ]
      },
      "post" : {
        "tags" : [ "users" ],
        "summary" : "",
        "description" : "Creates a relationship between a user and a customer.",
        "operationId" : "addUserCustomerRelationship",
        "consumes" : [ "application/json" ],
        "produces" : [ "application/json" ],
        "parameters" : [ {
          "name" : "user_id",
          "in" : "path",
          "description" : "ID of the user.",
          "required" : true,
          "type" : "string"
        }, {
          "in" : "body",
          "name" : "body",
          "description" : "The relationship.",
          "required" : true,
          "schema" : {
            "$ref" : "#/definitions/UserCustomerRelationship"
          }
        } ],
        "responses" : {
          "201" : {
            "description" : "The relationship has been created."
          }
        },
        "security" : [ {
          "api_key" : [ ]
        } ]
      }
    },
    "/identity/users/{user_id}/customers/{customer_id}" : {
      "get" : {
        "tags" : [ "users" ],
        "summary" : "",
        "description" : "Returns a relationship between a user and a customer.",
        "operationId" : "getUserCustomerRelationship",
        "consumes" : [ "application/json" ],
        "produces" : [ "application/json" ],
        "parameters" : [ {
          "name" : "user_id",
          "in" : "path",
          "description" : "ID of the user.",
          "required" : true,
          "type" : "string"
        }, {
          "name" : "customer_id",
          "in" : "path",
          "description" : "Unique identifier of the customer in UUID format.",
          "required" : true,
          "type" : "string"
        } ],
        "responses" : {
          "200" : {
            "description" : "The user-customer relationships.",
            "schema" : {
              "$ref" : "#/definitions/UserCustomerRelationship"
            }
          }
        },
        "security" : [ {
          "api_key" : [ ]
        } ]
      },
      "post" : {
        "tags" : [ "users" ],
        "summary" : "",
        "description" : "Updates a relationship between a user and a customer.",
        "operationId" : "updateUserCustomerRelationship",
        "consumes" : [ "application/json" ],
        "produces" : [ "application/json" ],
        "parameters" : [ {
          "name" : "user_id",
          "in" : "path",
          "description" : "ID of the user.",
          "required" : true,
          "type" : "string"
        }, {
          "name" : "customer_id",
          "in" : "path",
          "description" : "Unique identifier of the customer in UUID format.",
          "required" : true,
          "type" : "string"
        }, {
          "name" : "If-Match",
          "in" : "header",
          "description" : "The value taken from Etag HTTP header (specifies the version of the object). It is used by server to validate that client has actual version.",
          "required" : true,
          "type" : "string",
          "default" : ""
        }, {
          "in" : "body",
          "name" : "body",
          "description" : "The udpated relationship.",
          "required" : true,
          "schema" : {
            "$ref" : "#/definitions/UserCustomerRelationshipUpdate"
          }
        } ],
        "responses" : {
          "204" : {
            "description" : "The relationship has been updated."
          }
        },
        "security" : [ {
          "api_key" : [ ]
        } ]
      },
      "delete" : {
        "tags" : [ "users" ],
        "summary" : "",
        "description" : "Deletes a relationship between a user and a customer.",
        "operationId" : "deleteUserCustomerRelationship",
        "consumes" : [ "application/json" ],
        "produces" : [ "application/json" ],
        "parameters" : [ {
          "name" : "user_id",
          "in" : "path",
          "description" : "ID of the user.",
          "required" : true,
          "type" : "string"
        }, {
          "name" : "customer_id",
          "in" : "path",
          "description" : "Unique identifier of the customer in UUID format.",
          "required" : true,
          "type" : "string"
        }, {
          "name" : "If-Match",
          "in" : "header",
          "description" : "The value taken from Etag HTTP header (specifies the version of the object). It is used by server to validate that client has actual version.",
          "required" : true,
          "type" : "string",
          "default" : ""
        } ],
        "responses" : {
          "204" : {
            "description" : "The relationship has been deleted."
          }
        },
        "security" : [ {
          "api_key" : [ ]
        } ]
      }
    },
    "/identity/users/{user_id}/customers/{customer_id}/roles" : {
      "get" : {
        "tags" : [ "users" ],
        "summary" : "",
        "description" : "Returns all roles assigned to a relationship between the given user and the given customer.",
        "operationId" : "getRolesForUserCustomerRelationship",
        "consumes" : [ "application/json" ],
        "produces" : [ "application/json" ],
        "parameters" : [ {
          "name" : "user_id",
          "in" : "path",
          "description" : "ID of the user.",
          "required" : true,
          "type" : "string"
        }, {
          "name" : "customer_id",
          "in" : "path",
          "description" : "Unique identifier of the customer in UUID format.",
          "required" : true,
          "type" : "string"
        }, {
          "name" : "filter",
          "in" : "query",
          "description" : "Ability to filter collection to certain values, it uses FIQL syntax. Example: ?filter=name==snapshot",
          "required" : false,
          "type" : "string"
        }, {
          "name" : "sort",
          "in" : "query",
          "description" : "Ascending sort parameter where the value is the object attribute.",
          "required" : false,
          "type" : "string"
        }, {
          "name" : "sort_desc",
          "in" : "query",
          "description" : "Descending sort parameter where the value is the object attribute.",
          "required" : false,
          "type" : "string"
        }, {
          "name" : "limit",
          "in" : "query",
          "description" : "Specifies how many results is returned in response. The default value is 50, max allowed is 200. The response can return all results within single call (there is no cursor paging available).",
          "required" : false,
          "type" : "integer",
          "format" : "int32"
        }, {
          "name" : "cursor",
          "in" : "query",
          "description" : "Starting paging cursor.",
          "required" : false,
          "type" : "integer",
          "format" : "int32"
        } ],
        "responses" : {
          "200" : {
            "description" : "A collection of roles assigned to the given user per the customer.",
            "schema" : {
              "type" : "array",
              "items" : {
                "$ref" : "#/definitions/Role"
              }
            }
          }
        },
        "security" : [ {
          "api_key" : [ ]
        } ]
      },
      "post" : {
        "tags" : [ "users" ],
        "summary" : "",
        "description" : "Creates a relationship between a user-customer relationship and a role.",
        "operationId" : "addRoleToUserCustomerRelationship",
        "consumes" : [ "application/json" ],
        "produces" : [ "application/json" ],
        "parameters" : [ {
          "name" : "user_id",
          "in" : "path",
          "description" : "ID of the user.",
          "required" : true,
          "type" : "string"
        }, {
          "name" : "customer_id",
          "in" : "path",
          "description" : "Unique identifier of the customer in UUID format.",
          "required" : true,
          "type" : "string"
        }, {
          "in" : "body",
          "name" : "body",
          "description" : "The relationship.",
          "required" : true,
          "schema" : {
            "$ref" : "#/definitions/RoleId"
          }
        } ],
        "responses" : {
          "201" : {
            "description" : "The relationship has been created."
          }
        },
        "security" : [ {
          "api_key" : [ ]
        } ]
      }
    },
    "/identity/users/{user_id}/customers/{customer_id}/roles/{role_id}" : {
      "delete" : {
        "tags" : [ "users" ],
        "summary" : "",
        "description" : "Deletes a relationship between a user-customer relationship and a role.",
        "operationId" : "deleteRoleFromUserCustomerRelationship",
        "consumes" : [ "application/json" ],
        "produces" : [ "application/json" ],
        "parameters" : [ {
          "name" : "user_id",
          "in" : "path",
          "description" : "ID of the user.",
          "required" : true,
          "type" : "string"
        }, {
          "name" : "customer_id",
          "in" : "path",
          "description" : "Unique identifier of the customer in UUID format.",
          "required" : true,
          "type" : "string"
        }, {
          "name" : "role_id",
          "in" : "path",
          "description" : "The role ID (identifier).",
          "required" : true,
          "type" : "string"
        }, {
          "name" : "If-Match",
          "in" : "header",
          "description" : "The value taken from Etag HTTP header (specifies the version of the object). It is used by server to validate that client has actual version.",
          "required" : true,
          "type" : "string",
          "default" : ""
        } ],
        "responses" : {
          "204" : {
            "description" : "The relationship has been deleted."
          }
        },
        "security" : [ {
          "api_key" : [ ]
        } ]
      }
    },
    "/identity/users/{user_id}/partners" : {
      "get" : {
        "tags" : [ "users" ],
        "summary" : "",
        "description" : "Returns user's partners .",
        "operationId" : "getUserPartners",
        "consumes" : [ "application/json" ],
        "produces" : [ "application/json" ],
        "parameters" : [ {
          "name" : "user_id",
          "in" : "path",
          "description" : "ID of the user.",
          "required" : true,
          "type" : "string"
        }, {
          "name" : "filter",
          "in" : "query",
          "description" : "Ability to filter collection to certain values, it uses FIQL syntax. Example: ?filter=name==snapshot",
          "required" : false,
          "type" : "string"
        }, {
          "name" : "sort",
          "in" : "query",
          "description" : "Ascending sort parameter where the value is the object attribute.",
          "required" : false,
          "type" : "string"
        }, {
          "name" : "sort_desc",
          "in" : "query",
          "description" : "Descending sort parameter where the value is the object attribute.",
          "required" : false,
          "type" : "string"
        }, {
          "name" : "limit",
          "in" : "query",
          "description" : "Specifies how many results is returned in response. The default value is 50, max allowed is 200. The response can return all results within single call (there is no cursor paging available).",
          "required" : false,
          "type" : "integer",
          "format" : "int32"
        }, {
          "name" : "cursor",
          "in" : "query",
          "description" : "Starting paging cursor.",
          "required" : false,
          "type" : "integer",
          "format" : "int32"
        } ],
        "responses" : {
          "200" : {
            "description" : "A collection of partners of the specified user.",
            "schema" : {
              "type" : "array",
              "items" : {
                "$ref" : "#/definitions/PartnerUserView"
              }
            }
          }
        },
        "security" : [ {
          "api_key" : [ ]
        } ]
      },
      "post" : {
        "tags" : [ "users" ],
        "summary" : "",
        "description" : "Assigns the partner to the user.",
        "operationId" : "addUserPartnerRelationship",
        "consumes" : [ "application/json" ],
        "produces" : [ "application/json" ],
        "parameters" : [ {
          "name" : "user_id",
          "in" : "path",
          "description" : "ID of the user.",
          "required" : true,
          "type" : "string"
        }, {
          "in" : "body",
          "name" : "body",
          "description" : "Relationship between user and partner.",
          "required" : true,
          "schema" : {
            "$ref" : "#/definitions/PartnerUserRelationship"
          }
        } ],
        "responses" : {
          "201" : {
            "description" : "New relationship has been created.",
            "schema" : {
              "$ref" : "#/definitions/PartnerUserView"
            }
          }
        },
        "security" : [ {
          "api_key" : [ ]
        } ]
      }
    },
    "/identity/users/{user_id}/partners/{partner_id}" : {
      "get" : {
        "tags" : [ "users" ],
        "summary" : "",
        "description" : "Returns the relationship between the user and the partner.",
        "operationId" : "getUserPartnerRelationship",
        "consumes" : [ "application/json" ],
        "produces" : [ "application/json" ],
        "parameters" : [ {
          "name" : "user_id",
          "in" : "path",
          "description" : "ID of the user.",
          "required" : true,
          "type" : "string"
        }, {
          "name" : "partner_id",
          "in" : "path",
          "description" : "Partner identifier.",
          "required" : true,
          "type" : "string"
        } ],
        "responses" : {
          "204" : {
            "description" : "The relationship has been updated.",
            "schema" : {
              "$ref" : "#/definitions/PartnerUserView"
            }
          }
        },
        "security" : [ {
          "api_key" : [ ]
        } ]
      },
      "post" : {
        "tags" : [ "users" ],
        "summary" : "",
        "description" : "Updates a relationship between the user and the partner.",
        "operationId" : "updateUserPartnerRelationship",
        "consumes" : [ "application/json" ],
        "produces" : [ "application/json" ],
        "parameters" : [ {
          "name" : "user_id",
          "in" : "path",
          "description" : "ID of the user.",
          "required" : true,
          "type" : "string"
        }, {
          "name" : "partner_id",
          "in" : "path",
          "description" : "Partner identifier.",
          "required" : true,
          "type" : "string"
        }, {
          "name" : "If-Match",
          "in" : "header",
          "description" : "The value taken from Etag HTTP header (specifies the version of the object). It is used by server to validate that client has actual version.",
          "required" : true,
          "type" : "string",
          "default" : ""
        }, {
          "in" : "body",
          "name" : "body",
          "description" : "The relationship update.",
          "required" : true,
          "schema" : {
            "$ref" : "#/definitions/PartnerUserRelationshipUpdate"
          }
        } ],
        "responses" : {
          "204" : {
            "description" : "The relationship has been updated."
          }
        },
        "security" : [ {
          "api_key" : [ ]
        } ]
      },
      "delete" : {
        "tags" : [ "users" ],
        "summary" : "",
        "description" : "Deletes a relationship between the user and the partner.",
        "operationId" : "deleteUserPartnerRelationship",
        "consumes" : [ "application/json" ],
        "produces" : [ "application/json" ],
        "parameters" : [ {
          "name" : "user_id",
          "in" : "path",
          "description" : "ID of the user.",
          "required" : true,
          "type" : "string"
        }, {
          "name" : "partner_id",
          "in" : "path",
          "description" : "Partner identifier.",
          "required" : true,
          "type" : "string"
        }, {
          "name" : "If-Match",
          "in" : "header",
          "description" : "The value taken from Etag HTTP header (specifies the version of the object). It is used by server to validate that client has actual version.",
          "required" : true,
          "type" : "string",
          "default" : ""
        } ],
        "responses" : {
          "204" : {
            "description" : "The relationship has been deleted."
          }
        },
        "security" : [ {
          "api_key" : [ ]
        } ]
      }
    },
    "/identity/users/{user_id}/password" : {
      "post" : {
        "tags" : [ "users" ],
        "summary" : "",
        "description" : "Sets a user's password.",
        "operationId" : "setUserPassword",
        "consumes" : [ "application/json" ],
        "produces" : [ "application/json" ],
        "parameters" : [ {
          "name" : "user_id",
          "in" : "path",
          "description" : "ID of the user.",
          "required" : true,
          "type" : "string"
        }, {
          "in" : "body",
          "name" : "body",
          "description" : "The new password in plain text.",
          "required" : true,
          "schema" : {
            "type" : "string"
          }
        } ],
        "responses" : {
          "204" : {
            "description" : "The user's password has been set."
          }
        },
        "security" : [ {
          "api_key" : [ ]
        } ]
      }
    },
    "/identity/users/{user_id}/properties" : {
      "get" : {
        "tags" : [ "users" ],
        "summary" : "",
        "description" : "Returns all properties associated with the given user.",
        "operationId" : "getUserPropertyRelationships",
        "consumes" : [ "application/json" ],
        "produces" : [ "application/json" ],
        "parameters" : [ {
          "name" : "user_id",
          "in" : "path",
          "description" : "ID of the user.",
          "required" : true,
          "type" : "string"
        }, {
          "name" : "filter",
          "in" : "query",
          "description" : "Ability to filter collection to certain values, it uses FIQL syntax. Example: ?filter=name==snapshot",
          "required" : false,
          "type" : "string"
        }, {
          "name" : "sort",
          "in" : "query",
          "description" : "Ascending sort parameter where the value is the object attribute.",
          "required" : false,
          "type" : "string"
        }, {
          "name" : "sort_desc",
          "in" : "query",
          "description" : "Descending sort parameter where the value is the object attribute.",
          "required" : false,
          "type" : "string"
        }, {
          "name" : "limit",
          "in" : "query",
          "description" : "Specifies how many results is returned in response. The default value is 50, max allowed is 200. The response can return all results within single call (there is no cursor paging available).",
          "required" : false,
          "type" : "integer",
          "format" : "int32"
        }, {
          "name" : "cursor",
          "in" : "query",
          "description" : "Starting paging cursor.",
          "required" : false,
          "type" : "integer",
          "format" : "int32"
        } ],
        "responses" : {
          "200" : {
            "description" : "Collection of properties associated with the user.",
            "schema" : {
              "type" : "array",
              "items" : {
                "$ref" : "#/definitions/UserPropertyRelationship"
              }
            }
          }
        },
        "security" : [ {
          "api_key" : [ ]
        } ]
      },
      "post" : {
        "tags" : [ "users" ],
        "summary" : "",
        "description" : "Creates a relationship between a user and a property.",
        "operationId" : "addUserPropertyRelationship",
        "consumes" : [ "application/json" ],
        "produces" : [ "application/json" ],
        "parameters" : [ {
          "name" : "user_id",
          "in" : "path",
          "description" : "ID of the user.",
          "required" : true,
          "type" : "string"
        }, {
          "in" : "body",
          "name" : "body",
          "description" : "The relationship.",
          "required" : true,
          "schema" : {
            "$ref" : "#/definitions/UserPropertyRelationship"
          }
        } ],
        "responses" : {
          "201" : {
            "description" : "The relationship has been created."
          }
        },
        "security" : [ {
          "api_key" : [ ]
        } ]
      }
    },
    "/identity/users/{user_id}/properties/{property_id}" : {
      "get" : {
        "tags" : [ "users" ],
        "summary" : "",
        "description" : "Returns a relationship between a user and a property.",
        "operationId" : "getUserPropertyRelationship",
        "consumes" : [ "application/json" ],
        "produces" : [ "application/json" ],
        "parameters" : [ {
          "name" : "user_id",
          "in" : "path",
          "description" : "ID of the user.",
          "required" : true,
          "type" : "string"
        }, {
          "name" : "property_id",
          "in" : "path",
          "description" : "Property ID (identifier).",
          "required" : true,
          "type" : "string"
        } ],
        "responses" : {
          "200" : {
            "description" : "The retrieved relationship.",
            "schema" : {
              "$ref" : "#/definitions/UserPropertyRelationship"
            }
          }
        },
        "security" : [ {
          "api_key" : [ ]
        } ]
      },
      "post" : {
        "tags" : [ "users" ],
        "summary" : "",
        "description" : "Updates a relationship between a user and a property.",
        "operationId" : "updateUserPropertyRelationship",
        "consumes" : [ "application/json" ],
        "produces" : [ "application/json" ],
        "parameters" : [ {
          "name" : "user_id",
          "in" : "path",
          "description" : "ID of the user.",
          "required" : true,
          "type" : "string"
        }, {
          "name" : "property_id",
          "in" : "path",
          "description" : "Property ID (identifier).",
          "required" : true,
          "type" : "string"
        }, {
          "name" : "If-Match",
          "in" : "header",
          "description" : "The value taken from Etag HTTP header (specifies the version of the object). It is used by server to validate that client has actual version.",
          "required" : true,
          "type" : "string",
          "default" : ""
        }, {
          "in" : "body",
          "name" : "body",
          "description" : "The relationship update.",
          "required" : true,
          "schema" : {
            "$ref" : "#/definitions/UserPropertyRelationshipUpdate"
          }
        } ],
        "responses" : {
          "204" : {
            "description" : "The relationship has been updated."
          }
        },
        "security" : [ {
          "api_key" : [ ]
        } ]
      },
      "delete" : {
        "tags" : [ "users" ],
        "summary" : "",
        "description" : "Deletes a relationship between a user and a property.",
        "operationId" : "deleteUserPropertyRelationship",
        "consumes" : [ "application/json" ],
        "produces" : [ "application/json" ],
        "parameters" : [ {
          "name" : "user_id",
          "in" : "path",
          "description" : "ID of the user.",
          "required" : true,
          "type" : "string"
        }, {
          "name" : "property_id",
          "in" : "path",
          "description" : "Property ID (identifier).",
          "required" : true,
          "type" : "string"
        }, {
          "name" : "If-Match",
          "in" : "header",
          "description" : "The value taken from Etag HTTP header (specifies the version of the object). It is used by server to validate that client has actual version.",
          "required" : true,
          "type" : "string",
          "default" : ""
        } ],
        "responses" : {
          "204" : {
            "description" : "The relationship has been deleted."
          }
        },
        "security" : [ {
          "api_key" : [ ]
        } ]
      }
    },
    "/identity/users/{user_id}/properties/{property_id}/roles" : {
      "get" : {
        "tags" : [ "users" ],
        "summary" : "",
        "description" : "Returns all roles assigned to a relationship between the given user and the given property.",
        "operationId" : "getRolesForUserPropertyRelationship",
        "consumes" : [ "application/json" ],
        "produces" : [ "application/json" ],
        "parameters" : [ {
          "name" : "user_id",
          "in" : "path",
          "description" : "ID of the user.",
          "required" : true,
          "type" : "string"
        }, {
          "name" : "property_id",
          "in" : "path",
          "description" : "Property ID (identifier).",
          "required" : true,
          "type" : "string"
        }, {
          "name" : "filter",
          "in" : "query",
          "description" : "Ability to filter collection to certain values, it uses FIQL syntax. Example: ?filter=name==snapshot",
          "required" : false,
          "type" : "string"
        }, {
          "name" : "sort",
          "in" : "query",
          "description" : "Ascending sort parameter where the value is the object attribute.",
          "required" : false,
          "type" : "string"
        }, {
          "name" : "sort_desc",
          "in" : "query",
          "description" : "Descending sort parameter where the value is the object attribute.",
          "required" : false,
          "type" : "string"
        }, {
          "name" : "limit",
          "in" : "query",
          "description" : "Specifies how many results is returned in response. The default value is 50, max allowed is 200. The response can return all results within single call (there is no cursor paging available).",
          "required" : false,
          "type" : "integer",
          "format" : "int32"
        }, {
          "name" : "cursor",
          "in" : "query",
          "description" : "Starting paging cursor.",
          "required" : false,
          "type" : "integer",
          "format" : "int32"
        } ],
        "responses" : {
          "200" : {
            "description" : "A collection of roles assigned to the given user per the property.",
            "schema" : {
              "type" : "array",
              "items" : {
                "$ref" : "#/definitions/Role"
              }
            }
          }
        },
        "security" : [ {
          "api_key" : [ ]
        } ]
      },
      "post" : {
        "tags" : [ "users" ],
        "summary" : "",
        "description" : "Creates a relationship between a user-property relationship and a role.",
        "operationId" : "addRoleToUserPropertyRelationship",
        "consumes" : [ "application/json" ],
        "produces" : [ "application/json" ],
        "parameters" : [ {
          "name" : "user_id",
          "in" : "path",
          "description" : "ID of the user.",
          "required" : true,
          "type" : "string"
        }, {
          "name" : "property_id",
          "in" : "path",
          "description" : "Property ID (identifier).",
          "required" : true,
          "type" : "string"
        }, {
          "in" : "body",
          "name" : "body",
          "description" : "The relationship.",
          "required" : true,
          "schema" : {
            "$ref" : "#/definitions/RoleId"
          }
        } ],
        "responses" : {
          "201" : {
            "description" : "The relationship has been created."
          }
        },
        "security" : [ {
          "api_key" : [ ]
        } ]
      }
    },
    "/identity/users/{user_id}/properties/{property_id}/roles/{role_id}" : {
      "delete" : {
        "tags" : [ "users" ],
        "summary" : "",
        "description" : "Deletes a relationship between a user-property relationship and a role.",
        "operationId" : "deleteRoleFromUserPropertyRelationship",
        "consumes" : [ "application/json" ],
        "produces" : [ "application/json" ],
        "parameters" : [ {
          "name" : "user_id",
          "in" : "path",
          "description" : "ID of the user.",
          "required" : true,
          "type" : "string"
        }, {
          "name" : "property_id",
          "in" : "path",
          "description" : "Property ID (identifier).",
          "required" : true,
          "type" : "string"
        }, {
          "name" : "role_id",
          "in" : "path",
          "description" : "The role ID (identifier).",
          "required" : true,
          "type" : "string"
        }, {
          "name" : "If-Match",
          "in" : "header",
          "description" : "The value taken from Etag HTTP header (specifies the version of the object). It is used by server to validate that client has actual version.",
          "required" : true,
          "type" : "string",
          "default" : ""
        } ],
        "responses" : {
          "204" : {
            "description" : "The relationship has been deleted."
          }
        },
        "security" : [ {
          "api_key" : [ ]
        } ]
      }
    },
    "/identity/users/{user_id}/property_sets" : {
      "get" : {
        "tags" : [ "users" ],
        "summary" : "",
        "description" : "Returns all properties associated with the given user.",
        "operationId" : "getUserPropertySetRelationships",
        "consumes" : [ "application/json" ],
        "produces" : [ "application/json" ],
        "parameters" : [ {
          "name" : "user_id",
          "in" : "path",
          "description" : "ID of the user.",
          "required" : true,
          "type" : "string"
        }, {
          "name" : "filter",
          "in" : "query",
          "description" : "Ability to filter collection to certain values, it uses FIQL syntax. Example: ?filter=name==snapshot",
          "required" : false,
          "type" : "string"
        }, {
          "name" : "sort",
          "in" : "query",
          "description" : "Ascending sort parameter where the value is the object attribute.",
          "required" : false,
          "type" : "string"
        }, {
          "name" : "sort_desc",
          "in" : "query",
          "description" : "Descending sort parameter where the value is the object attribute.",
          "required" : false,
          "type" : "string"
        }, {
          "name" : "limit",
          "in" : "query",
          "description" : "Specifies how many results is returned in response. The default value is 50, max allowed is 200. The response can return all results within single call (there is no cursor paging available).",
          "required" : false,
          "type" : "integer",
          "format" : "int32"
        }, {
          "name" : "cursor",
          "in" : "query",
          "description" : "Starting paging cursor.",
          "required" : false,
          "type" : "integer",
          "format" : "int32"
        } ],
        "responses" : {
          "200" : {
            "description" : "Collection of property IDs associated with the given user.",
            "schema" : {
              "type" : "array",
              "items" : {
                "$ref" : "#/definitions/UserPropertySetRelationship"
              }
            }
          }
        },
        "security" : [ {
          "api_key" : [ ]
        } ]
      },
      "post" : {
        "tags" : [ "users" ],
        "summary" : "",
        "description" : "Creates a relationship between a user and a property set.",
        "operationId" : "addUserPropertySetRelationship",
        "consumes" : [ "application/json" ],
        "produces" : [ "application/json" ],
        "parameters" : [ {
          "name" : "user_id",
          "in" : "path",
          "description" : "ID of the user.",
          "required" : true,
          "type" : "string"
        }, {
          "in" : "body",
          "name" : "body",
          "description" : "The relationship.",
          "required" : true,
          "schema" : {
            "$ref" : "#/definitions/UserPropertySetRelationship"
          }
        } ],
        "responses" : {
          "201" : {
            "description" : "The relationship has been created."
          }
        },
        "security" : [ {
          "api_key" : [ ]
        } ]
      }
    },
    "/identity/users/{user_id}/property_sets/{property_set_id}" : {
      "get" : {
        "tags" : [ "users" ],
        "summary" : "",
        "description" : "Returns all properties that are associated with the given user and the given property set.",
        "operationId" : "getUserPropertySetRelationship",
        "consumes" : [ "application/json" ],
        "produces" : [ "application/json" ],
        "parameters" : [ {
          "name" : "user_id",
          "in" : "path",
          "description" : "ID of the user.",
          "required" : true,
          "type" : "string"
        }, {
          "name" : "property_set_id",
          "in" : "path",
          "description" : "Property set ID (identifier).",
          "required" : true,
          "type" : "string"
        } ],
        "responses" : {
          "200" : {
            "description" : "IDs of the properties.",
            "schema" : {
              "$ref" : "#/definitions/UserPropertyRelationship"
            }
          }
        },
        "security" : [ {
          "api_key" : [ ]
        } ]
      },
      "post" : {
        "tags" : [ "users" ],
        "summary" : "",
        "description" : "Update a relationship between a user and a property set.",
        "operationId" : "updateUserPropertySetRelationship",
        "consumes" : [ "application/json" ],
        "produces" : [ "application/json" ],
        "parameters" : [ {
          "name" : "user_id",
          "in" : "path",
          "description" : "ID of the user.",
          "required" : true,
          "type" : "string"
        }, {
          "name" : "property_set_id",
          "in" : "path",
          "description" : "Property set ID (identifier).",
          "required" : true,
          "type" : "string"
        }, {
          "name" : "If-Match",
          "in" : "header",
          "description" : "The value taken from Etag HTTP header (specifies the version of the object). It is used by server to validate that client has actual version.",
          "required" : true,
          "type" : "string",
          "default" : ""
        }, {
          "in" : "body",
          "name" : "body",
          "description" : "The relationship update.",
          "required" : true,
          "schema" : {
            "$ref" : "#/definitions/UserPropertySetRelationshipUpdate"
          }
        } ],
        "responses" : {
          "204" : {
            "description" : "The relationship has been updated."
          }
        },
        "security" : [ {
          "api_key" : [ ]
        } ]
      },
      "delete" : {
        "tags" : [ "users" ],
        "summary" : "",
        "description" : "Deletes a relationship between a user and a property set.",
        "operationId" : "deleteUserPropertySetRelationship",
        "consumes" : [ "application/json" ],
        "produces" : [ "application/json" ],
        "parameters" : [ {
          "name" : "user_id",
          "in" : "path",
          "description" : "ID of the user.",
          "required" : true,
          "type" : "string"
        }, {
          "name" : "property_set_id",
          "in" : "path",
          "description" : "Property set ID (identifier).",
          "required" : true,
          "type" : "string"
        }, {
          "name" : "If-Match",
          "in" : "header",
          "description" : "The value taken from Etag HTTP header (specifies the version of the object). It is used by server to validate that client has actual version.",
          "required" : true,
          "type" : "string",
          "default" : ""
        } ],
        "responses" : {
          "204" : {
            "description" : "The relationship has been deleted."
          }
        },
        "security" : [ {
          "api_key" : [ ]
        } ]
      }
    },
    "/identity/users/{user_id}/property_sets/{property_set_id}/roles" : {
      "get" : {
        "tags" : [ "users" ],
        "summary" : "",
        "description" : "Returns all roles assigned to a relationship between the given user and the given property.",
        "operationId" : "getRolesForUserPropertySetRelationship",
        "consumes" : [ "application/json" ],
        "produces" : [ "application/json" ],
        "parameters" : [ {
          "name" : "user_id",
          "in" : "path",
          "description" : "ID of the user.",
          "required" : true,
          "type" : "string"
        }, {
          "name" : "property_set_id",
          "in" : "path",
          "description" : "Property set ID (identifier).",
          "required" : true,
          "type" : "string"
        }, {
          "name" : "filter",
          "in" : "query",
          "description" : "Ability to filter collection to certain values, it uses FIQL syntax. Example: ?filter=name==snapshot",
          "required" : false,
          "type" : "string"
        }, {
          "name" : "sort",
          "in" : "query",
          "description" : "Ascending sort parameter where the value is the object attribute.",
          "required" : false,
          "type" : "string"
        }, {
          "name" : "sort_desc",
          "in" : "query",
          "description" : "Descending sort parameter where the value is the object attribute.",
          "required" : false,
          "type" : "string"
        }, {
          "name" : "limit",
          "in" : "query",
          "description" : "Specifies how many results is returned in response. The default value is 50, max allowed is 200. The response can return all results within single call (there is no cursor paging available).",
          "required" : false,
          "type" : "integer",
          "format" : "int32"
        }, {
          "name" : "cursor",
          "in" : "query",
          "description" : "Starting paging cursor.",
          "required" : false,
          "type" : "integer",
          "format" : "int32"
        } ],
        "responses" : {
          "200" : {
            "description" : "A collection of roles assigned to the given user per the property set.",
            "schema" : {
              "type" : "array",
              "items" : {
                "$ref" : "#/definitions/Role"
              }
            }
          }
        },
        "security" : [ {
          "api_key" : [ ]
        } ]
      },
      "post" : {
        "tags" : [ "users" ],
        "summary" : "",
        "description" : "Creates a relationship between a user-property set relationship and a role.",
        "operationId" : "addRoleToUserPropertySetRelationship",
        "consumes" : [ "application/json" ],
        "produces" : [ "application/json" ],
        "parameters" : [ {
          "name" : "user_id",
          "in" : "path",
          "description" : "ID of the user.",
          "required" : true,
          "type" : "string"
        }, {
          "name" : "property_set_id",
          "in" : "path",
          "description" : "Property set ID (identifier).",
          "required" : true,
          "type" : "string"
        }, {
          "in" : "body",
          "name" : "body",
          "description" : "The relationship.",
          "required" : true,
          "schema" : {
            "$ref" : "#/definitions/RoleId"
          }
        } ],
        "responses" : {
          "201" : {
            "description" : "The relationship has been created."
          }
        },
        "security" : [ {
          "api_key" : [ ]
        } ]
      }
    },
    "/identity/users/{user_id}/property_sets/{property_set_id}/roles/{role_id}" : {
      "delete" : {
        "tags" : [ "users" ],
        "summary" : "",
        "description" : "Deletes a relationship between a user-property set relationship and a role.",
        "operationId" : "deleteRoleFromUserPropertySetRelationship",
        "consumes" : [ "application/json" ],
        "produces" : [ "application/json" ],
        "parameters" : [ {
          "name" : "user_id",
          "in" : "path",
          "description" : "ID of the user.",
          "required" : true,
          "type" : "string"
        }, {
          "name" : "property_set_id",
          "in" : "path",
          "description" : "Property set ID (identifier).",
          "required" : true,
          "type" : "string"
        }, {
          "name" : "role_id",
          "in" : "path",
          "description" : "The role ID (identifier).",
          "required" : true,
          "type" : "string"
        }, {
          "name" : "If-Match",
          "in" : "header",
          "description" : "The value taken from Etag HTTP header (specifies the version of the object). It is used by server to validate that client has actual version.",
          "required" : true,
          "type" : "string",
          "default" : ""
        } ],
        "responses" : {
          "204" : {
            "description" : "The relationship has been deleted."
          }
        },
        "security" : [ {
          "api_key" : [ ]
        } ]
      }
    }
  },
  "securityDefinitions" : {
    "api_key" : {
      "type" : "apiKey",
      "name" : "Authorization",
      "in" : "header"
    }
  },
  "definitions" : {
    "PartnerUserRelationship" : {
      "type" : "object",
      "required" : [ "partner_id" ],
      "properties" : {
        "is_active" : {
          "type" : "boolean",
          "description" : "Indicates whether the relationship is active.",
          "default" : false
        },
        "partner_id" : {
          "type" : "string",
          "description" : "Unique identifier of the partner."
        }
      },
      "description" : "Contains only editable fields."
    },
    "PartnerUserRelationshipUpdate" : {
      "type" : "object",
      "properties" : {
        "is_active" : {
          "type" : "boolean",
          "description" : "Indicates whether the relationship is active.",
          "default" : false
        }
      },
      "description" : "Contains only editable fields."
    },
    "PartnerUserView" : {
      "type" : "object",
      "required" : [ "partner_id", "user_id" ],
      "properties" : {
        "is_active" : {
          "type" : "boolean",
          "description" : "Indicates whether the relationship is active.",
          "default" : false
        },
        "user_id" : {
          "type" : "string",
          "description" : "Unique identifier of the user."
        },
        "partner_id" : {
          "type" : "string",
          "description" : "Unique identifier of the partner."
        }
      }
    },
    "Role" : {
      "type" : "object",
      "required" : [ "application_id", "description", "name" ],
      "properties" : {
        "application_id" : {
          "type" : "string",
          "description" : "UUID of the associated application."
        },
        "name" : {
          "type" : "string",
          "description" : "Name of the role.",
          "minLength" : 0,
          "maxLength" : 50
        },
        "description" : {
          "type" : "string",
          "description" : "Description of the role.",
          "minLength" : 0,
          "maxLength" : 500
        },
        "role_id" : {
          "type" : "string",
          "description" : "UUID of the role."
        }
      }
    },
    "RoleId" : {
      "type" : "object",
      "required" : [ "role_id" ],
      "properties" : {
        "role_id" : {
          "type" : "string",
          "description" : "UUID of the role."
        }
      }
    },
    "User" : {
      "type" : "object",
      "required" : [ "culture", "email", "first_name", "last_name", "timezone", "user_id", "user_name", "user_type" ],
      "properties" : {
        "user_name" : {
          "type" : "string",
          "description" : "User name. The name must be unique.",
          "minLength" : 0,
          "maxLength" : 150
        },
        "user_type" : {
          "type" : "string",
          "description" : "Type of the user.",
          "enum" : [ "snapshot", "customer", "partner", "guest" ]
        },
        "first_name" : {
          "type" : "string",
          "description" : "First name.",
          "minLength" : 0,
          "maxLength" : 255
        },
        "last_name" : {
          "type" : "string",
          "description" : "Last name.",
          "minLength" : 0,
          "maxLength" : 255
        },
        "phone" : {
          "type" : "string",
          "description" : "Phone number.",
          "minLength" : 0,
          "maxLength" : 255
        },
        "timezone" : {
          "type" : "string",
          "description" : "Time zone.",
          "minLength" : 0,
          "maxLength" : 50
        },
        "culture" : {
          "type" : "string",
          "description" : "Culture.",
          "minLength" : 0,
          "maxLength" : 50
        },
        "email" : {
          "type" : "string",
          "description" : "Email.",
          "minLength" : 0,
          "maxLength" : 190
        },
        "is_active" : {
          "type" : "boolean",
          "description" : "Indicates whether the user is active.",
          "default" : false
        },
        "salesforce_id" : {
          "type" : "string",
          "description" : "ID of the user's record in Salesforce.",
          "minLength" : 0,
          "maxLength" : 64
        },
        "picture" : {
          "type" : "string",
          "description" : "Link to a picture.",
          "minLength" : 0,
          "maxLength" : 500
        },
        "comment" : {
          "type" : "string",
          "description" : "Comment for the user.",
          "minLength" : 0,
          "maxLength" : 500
        },
        "user_id" : {
          "type" : "string",
          "description" : "User ID."
        }
      }
    },
    "UserCreate" : {
      "type" : "object",
      "required" : [ "culture", "email", "first_name", "last_name", "timezone", "user_customer_relationship", "user_id", "user_name", "user_type" ],
      "properties" : {
        "user_name" : {
          "type" : "string",
          "description" : "User name. The name must be unique.",
          "minLength" : 0,
          "maxLength" : 150
        },
        "user_type" : {
          "type" : "string",
          "description" : "Type of the user.",
          "enum" : [ "snapshot", "customer", "partner", "guest" ]
        },
        "first_name" : {
          "type" : "string",
          "description" : "First name.",
          "minLength" : 0,
          "maxLength" : 255
        },
        "last_name" : {
          "type" : "string",
          "description" : "Last name.",
          "minLength" : 0,
          "maxLength" : 255
        },
        "phone" : {
          "type" : "string",
          "description" : "Phone number.",
          "minLength" : 0,
          "maxLength" : 255
        },
        "timezone" : {
          "type" : "string",
          "description" : "Time zone.",
          "minLength" : 0,
          "maxLength" : 50
        },
        "culture" : {
          "type" : "string",
          "description" : "Culture.",
          "minLength" : 0,
          "maxLength" : 50
        },
        "email" : {
          "type" : "string",
          "description" : "Email.",
          "minLength" : 0,
          "maxLength" : 190
        },
        "is_active" : {
          "type" : "boolean",
          "description" : "Indicates whether the user is active.",
          "default" : false
        },
        "salesforce_id" : {
          "type" : "string",
          "description" : "ID of the user's record in Salesforce.",
          "minLength" : 0,
          "maxLength" : 64
        },
        "picture" : {
          "type" : "string",
          "description" : "Link to a picture.",
          "minLength" : 0,
          "maxLength" : 500
        },
        "comment" : {
          "type" : "string",
          "description" : "Comment for the user.",
          "minLength" : 0,
          "maxLength" : 500
        },
        "user_id" : {
          "type" : "string",
          "description" : "User ID."
        },
        "user_customer_relationship" : {
          "description" : "The relationship with a customer.",
          "$ref" : "#/definitions/UserCustomerRelationship"
        }
      }
    },
    "UserCustomerRelationship" : {
      "type" : "object",
      "required" : [ "customer_id", "is_primary" ],
      "properties" : {
        "is_primary" : {
          "type" : "boolean",
          "description" : "Indicates whether the relationship is primary (user primarily belongs to the given customer). You can use this to set the context a user is working in without having to select on which customer the current user operates.",
          "default" : false
        },
        "customer_id" : {
          "type" : "string",
          "description" : "The customer ID."
        }
      }
    },
    "UserCustomerRelationshipUpdate" : {
      "type" : "object",
      "required" : [ "is_primary" ],
      "properties" : {
        "is_primary" : {
          "type" : "boolean",
          "description" : "Indicates whether the relationship is primary (user primarily belongs to the given customer). You can use this to set the context a user is working in without having to select on which customer the current user operates.",
          "default" : false
        }
      }
    },
    "UserPropertyRelationship" : {
      "type" : "object",
      "required" : [ "property_id" ],
      "properties" : {
        "is_active" : {
          "type" : "boolean",
          "description" : "Indicates whether the relationship is active.",
          "default" : false
        },
        "property_id" : {
          "type" : "string",
          "description" : "Property ID."
        }
      }
    },
    "UserPropertyRelationshipUpdate" : {
      "type" : "object",
      "properties" : {
        "is_active" : {
          "type" : "boolean",
          "description" : "Indicates whether the relationship is active.",
          "default" : false
        }
      }
    },
    "UserPropertySetRelationship" : {
      "type" : "object",
      "required" : [ "is_active", "property_set_id" ],
      "properties" : {
        "is_active" : {
          "type" : "boolean",
          "description" : "Indicates whether the property set is active.",
          "default" : false
        },
        "property_set_id" : {
          "type" : "string",
          "description" : "Property set ID."
        }
      }
    },
    "UserPropertySetRelationshipUpdate" : {
      "type" : "object",
      "required" : [ "is_active" ],
      "properties" : {
        "is_active" : {
          "type" : "boolean",
          "description" : "Indicates whether the property set is active.",
          "default" : false
        }
      },
      "description" : "Contains only editable fields."
    },
    "UserUpdate" : {
      "type" : "object",
      "required" : [ "culture", "email", "first_name", "last_name", "timezone", "user_name", "user_type" ],
      "properties" : {
        "user_name" : {
          "type" : "string",
          "description" : "User name. The name must be unique.",
          "minLength" : 0,
          "maxLength" : 150
        },
        "user_type" : {
          "type" : "string",
          "description" : "Type of the user.",
          "enum" : [ "snapshot", "customer", "partner", "guest" ]
        },
        "first_name" : {
          "type" : "string",
          "description" : "First name.",
          "minLength" : 0,
          "maxLength" : 255
        },
        "last_name" : {
          "type" : "string",
          "description" : "Last name.",
          "minLength" : 0,
          "maxLength" : 255
        },
        "phone" : {
          "type" : "string",
          "description" : "Phone number.",
          "minLength" : 0,
          "maxLength" : 255
        },
        "timezone" : {
          "type" : "string",
          "description" : "Time zone.",
          "minLength" : 0,
          "maxLength" : 50
        },
        "culture" : {
          "type" : "string",
          "description" : "Culture.",
          "minLength" : 0,
          "maxLength" : 50
        },
        "email" : {
          "type" : "string",
          "description" : "Email.",
          "minLength" : 0,
          "maxLength" : 190
        },
        "is_active" : {
          "type" : "boolean",
          "description" : "Indicates whether the user is active.",
          "default" : false
        },
        "salesforce_id" : {
          "type" : "string",
          "description" : "ID of the user's record in Salesforce.",
          "minLength" : 0,
          "maxLength" : 64
        },
        "picture" : {
          "type" : "string",
          "description" : "Link to a picture.",
          "minLength" : 0,
          "maxLength" : 500
        },
        "comment" : {
          "type" : "string",
          "description" : "Comment for the user.",
          "minLength" : 0,
          "maxLength" : 500
        }
      },
      "description" : "Contains only editable fields."
    }
  }
}